﻿  Zad6.cpp
c:\users\patryk\documents\visual studio 2015\projects\grafika\zad6\zad6\zad6.cpp(60): warning C4244: 'argument': conversion from 'int' to 'GLfloat', possible loss of data
c:\users\patryk\documents\visual studio 2015\projects\grafika\zad6\zad6\zad6.cpp(60): warning C4244: 'argument': conversion from 'double' to 'GLfloat', possible loss of data
c:\users\patryk\documents\visual studio 2015\projects\grafika\zad6\zad6\zad6.cpp(134): warning C4305: 'argument': truncation from 'double' to 'GLclampf'
c:\users\patryk\documents\visual studio 2015\projects\grafika\zad6\zad6\zad6.cpp(164): warning C4244: '-=': conversion from 'double' to 'float', possible loss of data
c:\users\patryk\documents\visual studio 2015\projects\grafika\zad6\zad6\zad6.cpp(166): warning C4244: '-=': conversion from 'double' to 'float', possible loss of data
  Zad6.vcxproj -> C:\Users\Patryk\Documents\Visual Studio 2015\Projects\Grafika\Zad6\Debug\Zad6.exe
