^C:\USERS\PATRYK\DOCUMENTS\VISUAL STUDIO 2015\PROJECTS\GRAFIKA\ZAJ3\ZAD3\STDAFX.CPP
C:\USERS\PATRYK\DOCUMENTS\VISUAL STUDIO 2015\PROJECTS\GRAFIKA\ZAJ3\ZAD3\DEBUG\ZAD3.PCH
C:\USERS\PATRYK\DOCUMENTS\VISUAL STUDIO 2015\PROJECTS\GRAFIKA\ZAJ3\ZAD3\DEBUG\VC140.PDB
C:\USERS\PATRYK\DOCUMENTS\VISUAL STUDIO 2015\PROJECTS\GRAFIKA\ZAJ3\ZAD3\DEBUG\VC140.IDB
C:\USERS\PATRYK\DOCUMENTS\VISUAL STUDIO 2015\PROJECTS\GRAFIKA\ZAJ3\ZAD3\DEBUG\STDAFX.OBJ
^C:\USERS\PATRYK\DOCUMENTS\VISUAL STUDIO 2015\PROJECTS\GRAFIKA\ZAJ3\ZAD3\ZAD3.CPP
C:\USERS\PATRYK\DOCUMENTS\VISUAL STUDIO 2015\PROJECTS\GRAFIKA\ZAJ3\ZAD3\DEBUG\VC140.PDB
C:\USERS\PATRYK\DOCUMENTS\VISUAL STUDIO 2015\PROJECTS\GRAFIKA\ZAJ3\ZAD3\DEBUG\VC140.IDB
