^C:\USERS\PATRYK\DOCUMENTS\VISUAL STUDIO 2015\PROJECTS\GRAFIKA\LAB1\ZAD4\STDAFX.CPP
/c /I"C:\USERS\PATRYK\DOCUMENTS\VISUAL STUDIO 2015\PROJECTS\GRAFIKA\LAB1\PACKAGES\FREEGLUT.2.8.1.15\BUILD\NATIVE\../..//BUILD/NATIVE/INCLUDE/" /I"C:\USERS\PATRYK\DOCUMENTS\VISUAL STUDIO 2015\PROJECTS\GRAFIKA\LAB1\PACKAGES\NUPENGL.CORE.0.1.0.1\BUILD\NATIVE\../..//BUILD/NATIVE/INCLUDE/" /ZI /nologo /W3 /WX- /sdl /Od /Oy- /D HAS_FREEGLUT /D WIN32 /D _DEBUG /D _CONSOLE /D _UNICODE /D UNICODE /Gm /EHsc /RTC1 /MDd /GS /fp:precise /Zc:wchar_t /Zc:forScope /Zc:inline /Yc"stdafx.h" /Fp"DEBUG\ZAD4.PCH" /Fo"DEBUG\\" /Fd"DEBUG\VC140.PDB" /Gd /TP /analyze- C:\USERS\PATRYK\DOCUMENTS\VISUAL STUDIO 2015\PROJECTS\GRAFIKA\LAB1\ZAD4\STDAFX.CPP
^C:\USERS\PATRYK\DOCUMENTS\VISUAL STUDIO 2015\PROJECTS\GRAFIKA\LAB1\ZAD4\ZAD4.CPP
/c /I"C:\USERS\PATRYK\DOCUMENTS\VISUAL STUDIO 2015\PROJECTS\GRAFIKA\LAB1\PACKAGES\FREEGLUT.2.8.1.15\BUILD\NATIVE\../..//BUILD/NATIVE/INCLUDE/" /I"C:\USERS\PATRYK\DOCUMENTS\VISUAL STUDIO 2015\PROJECTS\GRAFIKA\LAB1\PACKAGES\NUPENGL.CORE.0.1.0.1\BUILD\NATIVE\../..//BUILD/NATIVE/INCLUDE/" /ZI /nologo /W3 /WX- /sdl /Od /Oy- /D HAS_FREEGLUT /D WIN32 /D _DEBUG /D _CONSOLE /D _UNICODE /D UNICODE /Gm /EHsc /RTC1 /MDd /GS /fp:precise /Zc:wchar_t /Zc:forScope /Zc:inline /Yu"stdafx.h" /Fp"DEBUG\ZAD4.PCH" /Fo"DEBUG\\" /Fd"DEBUG\VC140.PDB" /Gd /TP /analyze- C:\USERS\PATRYK\DOCUMENTS\VISUAL STUDIO 2015\PROJECTS\GRAFIKA\LAB1\ZAD4\ZAD4.CPP
