^C:\USERS\PATRYK\DOCUMENTS\VISUAL STUDIO 2015\PROJECTS\GRAFIKA\LAB1\ZAD4\DEBUG\STDAFX.OBJ|C:\USERS\PATRYK\DOCUMENTS\VISUAL STUDIO 2015\PROJECTS\GRAFIKA\LAB1\ZAD4\DEBUG\ZAD4.OBJ
C:\USERS\PATRYK\DOCUMENTS\VISUAL STUDIO 2015\PROJECTS\GRAFIKA\LAB1\DEBUG\ZAD4.ILK
C:\USERS\PATRYK\DOCUMENTS\VISUAL STUDIO 2015\PROJECTS\GRAFIKA\LAB1\DEBUG\ZAD4.EXE
C:\USERS\PATRYK\DOCUMENTS\VISUAL STUDIO 2015\PROJECTS\GRAFIKA\LAB1\DEBUG\ZAD4.PDB
