^C:\USERS\PATRYK\DOCUMENTS\VISUAL STUDIO 2015\PROJECTS\GRAFIKA\ZAJ3\ZAD1\DEBUG\STDAFX.OBJ|C:\USERS\PATRYK\DOCUMENTS\VISUAL STUDIO 2015\PROJECTS\GRAFIKA\ZAJ3\ZAD1\DEBUG\ZAD1.OBJ
C:\USERS\PATRYK\DOCUMENTS\VISUAL STUDIO 2015\PROJECTS\GRAFIKA\ZAJ3\DEBUG\ZAD1.ILK
C:\USERS\PATRYK\DOCUMENTS\VISUAL STUDIO 2015\PROJECTS\GRAFIKA\ZAJ3\DEBUG\ZAD1.EXE
C:\USERS\PATRYK\DOCUMENTS\VISUAL STUDIO 2015\PROJECTS\GRAFIKA\ZAJ3\DEBUG\ZAD1.PDB
