^C:\USERS\PATRYK\DOCUMENTS\VISUAL STUDIO 2015\PROJECTS\GRAFIKA\ZAD8\ZAD8\STDAFX.CPP
C:\USERS\PATRYK\DOCUMENTS\VISUAL STUDIO 2015\PROJECTS\GRAFIKA\ZAD8\ZAD8\DEBUG\ZAD8.PCH
C:\USERS\PATRYK\DOCUMENTS\VISUAL STUDIO 2015\PROJECTS\GRAFIKA\ZAD8\ZAD8\DEBUG\VC140.PDB
C:\USERS\PATRYK\DOCUMENTS\VISUAL STUDIO 2015\PROJECTS\GRAFIKA\ZAD8\ZAD8\DEBUG\VC140.IDB
C:\USERS\PATRYK\DOCUMENTS\VISUAL STUDIO 2015\PROJECTS\GRAFIKA\ZAD8\ZAD8\DEBUG\STDAFX.OBJ
^C:\USERS\PATRYK\DOCUMENTS\VISUAL STUDIO 2015\PROJECTS\GRAFIKA\ZAD8\ZAD8\ZAD8.CPP
C:\USERS\PATRYK\DOCUMENTS\VISUAL STUDIO 2015\PROJECTS\GRAFIKA\ZAD8\ZAD8\DEBUG\VC140.PDB
C:\USERS\PATRYK\DOCUMENTS\VISUAL STUDIO 2015\PROJECTS\GRAFIKA\ZAD8\ZAD8\DEBUG\VC140.IDB
C:\USERS\PATRYK\DOCUMENTS\VISUAL STUDIO 2015\PROJECTS\GRAFIKA\ZAD8\ZAD8\DEBUG\ZAD8.OBJ
