^C:\USERS\PATRYK\DOCUMENTS\VISUAL STUDIO 2015\PROJECTS\GRAFIKA\ZAD6\ZAD6\STDAFX.CPP
C:\USERS\PATRYK\DOCUMENTS\VISUAL STUDIO 2015\PROJECTS\GRAFIKA\ZAD6\ZAD6\DEBUG\ZAD6.PCH
C:\USERS\PATRYK\DOCUMENTS\VISUAL STUDIO 2015\PROJECTS\GRAFIKA\ZAD6\ZAD6\DEBUG\VC140.PDB
C:\USERS\PATRYK\DOCUMENTS\VISUAL STUDIO 2015\PROJECTS\GRAFIKA\ZAD6\ZAD6\DEBUG\VC140.IDB
C:\USERS\PATRYK\DOCUMENTS\VISUAL STUDIO 2015\PROJECTS\GRAFIKA\ZAD6\ZAD6\DEBUG\STDAFX.OBJ
^C:\USERS\PATRYK\DOCUMENTS\VISUAL STUDIO 2015\PROJECTS\GRAFIKA\ZAD6\ZAD6\ZAD6.CPP
C:\USERS\PATRYK\DOCUMENTS\VISUAL STUDIO 2015\PROJECTS\GRAFIKA\ZAD6\ZAD6\DEBUG\VC140.PDB
C:\USERS\PATRYK\DOCUMENTS\VISUAL STUDIO 2015\PROJECTS\GRAFIKA\ZAD6\ZAD6\DEBUG\VC140.IDB
C:\USERS\PATRYK\DOCUMENTS\VISUAL STUDIO 2015\PROJECTS\GRAFIKA\ZAD6\ZAD6\DEBUG\ZAD6.OBJ
