^C:\USERS\PATRYK\DOCUMENTS\VISUAL STUDIO 2015\PROJECTS\GRAFIKA\ZAD6\ZAD6\DEBUG\STDAFX.OBJ|C:\USERS\PATRYK\DOCUMENTS\VISUAL STUDIO 2015\PROJECTS\GRAFIKA\ZAD6\ZAD6\DEBUG\ZAD6.OBJ
C:\USERS\PATRYK\DOCUMENTS\VISUAL STUDIO 2015\PROJECTS\GRAFIKA\ZAD6\DEBUG\ZAD6.ILK
C:\USERS\PATRYK\DOCUMENTS\VISUAL STUDIO 2015\PROJECTS\GRAFIKA\ZAD6\DEBUG\ZAD6.EXE
C:\USERS\PATRYK\DOCUMENTS\VISUAL STUDIO 2015\PROJECTS\GRAFIKA\ZAD6\DEBUG\ZAD6.PDB
